…
Get data function

get_data<- function(table_name) {
dataset <- tbl(connection,dbplyr::in_schema(dbname, table_name))
  return(dataset)
}

The following is the query that returns all relevant records for project 3

d607_p3_all_recs<-as.data.frame(get_data('view_d607_p3_all_recs'))

tibble(d607_p3_all_recs)

## # A tibble: 49,238 x 10
##    job_id job_title company no_of_emp salary_range revenue_range industry
##     <int> <chr>     <chr>   <chr>     <chr>        <chr>         <chr>   
##  1      1 Data Sci Expres 10000+    <80000       More than $1 Health 
##  2      1 Data Sci Expres 10000+    <80000       More than $1 Health 
##  3      2 Data Sci Money  NONE      <80000       NONE          NONE    
##  4      2 Data Sci Money  NONE      <80000       NONE          NONE    
##  5      2 Data Sci Money  NONE      <80000       NONE          NONE    
##  6      2 Data Sci Money  NONE      <80000       NONE          NONE    
##  7      2 Data Sci Money  NONE      <80000       NONE          NONE    
##  8      3 Data Sci comSco NONE      <80000       NONE          NONE    
##  9      3 Data Sci comSco NONE      <80000       NONE          NONE    
## 10      3 Data Sci comSco NONE      <80000       NONE          NONE    
## #  with 49,228 more rows, and 3 more variables: postal_code <chr>,
## #   skill_id <int>, skill_desc <chr>
…
